^D:\DATLT\YOLO_V4\DARKNET\SRC\ACTIVATION_KERNELS.CU
X64\RELEASE\ACTIVATION_KERNELS.CU.OBJ
^D:\DATLT\YOLO_V4\DARKNET\SRC\AVGPOOL_LAYER_KERNELS.CU
X64\RELEASE\AVGPOOL_LAYER_KERNELS.CU.OBJ
^D:\DATLT\YOLO_V4\DARKNET\SRC\BLAS_KERNELS.CU
X64\RELEASE\BLAS_KERNELS.CU.OBJ
^D:\DATLT\YOLO_V4\DARKNET\SRC\COL2IM_KERNELS.CU
X64\RELEASE\COL2IM_KERNELS.CU.OBJ
^D:\DATLT\YOLO_V4\DARKNET\SRC\CONVOLUTIONAL_KERNELS.CU
X64\RELEASE\CONVOLUTIONAL_KERNELS.CU.OBJ
^D:\DATLT\YOLO_V4\DARKNET\SRC\CROP_LAYER_KERNELS.CU
X64\RELEASE\CROP_LAYER_KERNELS.CU.OBJ
^D:\DATLT\YOLO_V4\DARKNET\SRC\DECONVOLUTIONAL_KERNELS.CU
X64\RELEASE\DECONVOLUTIONAL_KERNELS.CU.OBJ
^D:\DATLT\YOLO_V4\DARKNET\SRC\DROPOUT_LAYER_KERNELS.CU
X64\RELEASE\DROPOUT_LAYER_KERNELS.CU.OBJ
^D:\DATLT\YOLO_V4\DARKNET\SRC\IM2COL_KERNELS.CU
X64\RELEASE\IM2COL_KERNELS.CU.OBJ
^D:\DATLT\YOLO_V4\DARKNET\SRC\MAXPOOL_LAYER_KERNELS.CU
X64\RELEASE\MAXPOOL_LAYER_KERNELS.CU.OBJ
^D:\DATLT\YOLO_V4\DARKNET\SRC\NETWORK_KERNELS.CU
X64\RELEASE\NETWORK_KERNELS.CU.OBJ
